…
    ## date created (size, mb): 2024-09-26 23:40:09.008997 (3.94)

    ## file min/max dates: 1949-10-01 / 2024-09-30

    ## using cached file: C:\Users\sarah\AppData\Local/R/cache/R/rnoaa/noaa_ghcnd/USS0023B17S.dly

    ## date created (size, mb): 2024-09-26 23:40:17.640862 (1.038)

    ## file min/max dates: 1999-09-01 / 2024-09-30

``` r
weather_df
```

    ## # A tibble: 2,190 × 7
    ##    name           id          date        prcp  tmax  tmin month     
    ##    <chr>          <chr>       <date>     <dbl> <dbl> <dbl> <date>    
    ##  1 CentralPark_NY USW00094728 2021-01-01   157   4.4   0.6 2021-01-01
    ##  2 CentralPark_NY USW00094728 2021-01-02    13  10.6   2.2 2021-01-01
    ##  3 CentralPark_NY USW00094728 2021-01-03    56   3.3   1.1 2021-01-01
    ##  4 CentralPark_NY USW00094728 2021-01-04     5   6.1   1.7 2021-01-01
    ##  5 CentralPark_NY USW00094728 2021-01-05     0   5.6   2.2 2021-01-01
    ##  6 CentralPark_NY USW00094728 2021-01-06     0   5     1.1 2021-01-01
    ##  7 CentralPark_NY USW00094728 2021-01-07     0   5    -1   2021-01-01
    ##  8 CentralPark_NY USW00094728 2021-01-08     0   2.8  -2.7 2021-01-01
    ##  9 CentralPark_NY USW00094728 2021-01-09     0   2.8  -4.3 2021-01-01
    ## 10 CentralPark_NY USW00094728 2021-01-10     0   5    -1.6 2021-01-01
    ## # ℹ 2,180 more rows

## `group_by`

``` r
weather_df %>% 
  group_by(name) #appears like nothing happened by whats different says groups name[3]
```

    ## # A tibble: 2,190 × 7
    ## # Groups:   name [3]
    ##    name           id          date        prcp  tmax  tmin month     
    ##    <chr>          <chr>       <date>     <dbl> <dbl> <dbl> <date>    
    ##  1 CentralPark_NY USW00094728 2021-01-01   157   4.4   0.6 2021-01-01
    ##  2 CentralPark_NY USW00094728 2021-01-02    13  10.6   2.2 2021-01-01
    ##  3 CentralPark_NY USW00094728 2021-01-03    56   3.3   1.1 2021-01-01
    ##  4 CentralPark_NY USW00094728 2021-01-04     5   6.1   1.7 2021-01-01
    ##  5 CentralPark_NY USW00094728 2021-01-05     0   5.6   2.2 2021-01-01
    ##  6 CentralPark_NY USW00094728 2021-01-06     0   5     1.1 2021-01-01
    ##  7 CentralPark_NY USW00094728 2021-01-07     0   5    -1   2021-01-01
    ##  8 CentralPark_NY USW00094728 2021-01-08     0   2.8  -2.7 2021-01-01
    ##  9 CentralPark_NY USW00094728 2021-01-09     0   2.8  -4.3 2021-01-01
    ## 10 CentralPark_NY USW00094728 2021-01-10     0   5    -1.6 2021-01-01
    ## # ℹ 2,180 more rows

``` r
weather_df %>% 
  group_by(name, month) %>% #groups by name and month
  ungroup() #gets rid of whatever grouping structure you have 
```

    ## # A tibble: 2,190 × 7
    ##    name           id          date        prcp  tmax  tmin month     
    ##    <chr>          <chr>       <date>     <dbl> <dbl> <dbl> <date>    
    ##  1 CentralPark_NY USW00094728 2021-01-01   157   4.4   0.6 2021-01-01
    ##  2 CentralPark_NY USW00094728 2021-01-02    13  10.6   2.2 2021-01-01
    ##  3 CentralPark_NY USW00094728 2021-01-03    56   3.3   1.1 2021-01-01
    ##  4 CentralPark_NY USW00094728 2021-01-04     5   6.1   1.7 2021-01-01
    ##  5 CentralPark_NY USW00094728 2021-01-05     0   5.6   2.2 2021-01-01
    ##  6 CentralPark_NY USW00094728 2021-01-06     0   5     1.1 2021-01-01
    ##  7 CentralPark_NY USW00094728 2021-01-07     0   5    -1   2021-01-01
    ##  8 CentralPark_NY USW00094728 2021-01-08     0   2.8  -2.7 2021-01-01
    ##  9 CentralPark_NY USW00094728 2021-01-09     0   2.8  -4.3 2021-01-01
    ## 10 CentralPark_NY USW00094728 2021-01-10     0   5    -1.6 2021-01-01
    ## # ℹ 2,180 more rows

## counting the things

ie. how many ovbservations exist count months in this code

``` r
weather_df %>% 
  group_by(month) %>% 
  summarize(n_obs = n())   #n() counts for you, n_obs is the variable you created and end result is a tibble 
```

    ## # A tibble: 24 × 2
    ##    month      n_obs
    ##    <date>     <int>
    ##  1 2021-01-01    93
    ##  2 2021-02-01    84
    ##  3 2021-03-01    93
    ##  4 2021-04-01    90
    ##  5 2021-05-01    93
    ##  6 2021-06-01    90
    ##  7 2021-07-01    93
    ##  8 2021-08-01    93
    ##  9 2021-09-01    90
    ## 10 2021-10-01    93
    ## # ℹ 14 more rows

we can also use count()

``` r
weather_df %>% 
  count(month, name = "n_obs")
```

    ## # A tibble: 24 × 2
    ##    month      n_obs
    ##    <date>     <int>
    ##  1 2021-01-01    93
    ##  2 2021-02-01    84
    ##  3 2021-03-01    93
    ##  4 2021-04-01    90
    ##  5 2021-05-01    93
    ##  6 2021-06-01    90
    ##  7 2021-07-01    93
    ##  8 2021-08-01    93
    ##  9 2021-09-01    90
    ## 10 2021-10-01    93
    ## # ℹ 14 more rows
…
other helpful counters

``` r
weather_df %>% 
  group_by(month) %>% 
  summarize(
    n_obs = n(),
    n_days = n_distinct(date) #n_distint looks at this month how many dated are distinct 
  )
```

    ## # A tibble: 24 × 3
    ##    month      n_obs n_days
    ##    <date>     <int>  <int>
    ##  1 2021-01-01    93     31
    ##  2 2021-02-01    84     28
    ##  3 2021-03-01    93     31
    ##  4 2021-04-01    90     30
    ##  5 2021-05-01    93     31
    ##  6 2021-06-01    90     30
    ##  7 2021-07-01    93     31
    ##  8 2021-08-01    93     31
    ##  9 2021-09-01    90     30
    ## 10 2021-10-01    93     31
    ## # ℹ 14 more rows
